<?xml version="1.0" encoding="UTF-8"?>
<!DOCTYPE svg PUBLIC "-//W3C//DTD SVG 1.1//EN" "http://www.w3.org/Graphics/SVG/1.1/DTD/svg11.dtd">
<!-- Creator: CorelDRAW 2021 (64-Bit) -->
<svg xmlns="http://www.w3.org/2000/svg" xml:space="preserve" width="12mm" height="12mm" version="1.1" style="shape-rendering:geometricPrecision; text-rendering:geometricPrecision; image-rendering:optimizeQuality; fill-rule:evenodd; clip-rule:evenodd"
viewBox="0 0 1200 1200"
 xmlns:xlink="http://www.w3.org/1999/xlink"
 xmlns:xodm="http://www.corel.com/coreldraw/odm/2003">
 <defs>
  <style type="text/css">
   <![CDATA[
    .fil1 {fill:#ACCE22}
    .fil0 {fill:#00A2E9}
   ]]>
  </style>
 </defs>
 <g id="Layer_x0020_1">
  <metadata id="CorelCorpID_0Corel-Layer"/>
  <g id="_1563676223216">
   <path class="fil0" d="M100 492.42l408.84 0 195.97 0 0 195.95 0 257.42c0,107.71 -88.18,151.37 -195.97,151.37l0 0 0 -408.79 -257.45 0c-107.73,0 -151.39,-88.18 -151.39,-195.95z"/>
   <path class="fil0" d="M704.81 102.83l0 347.33 -195.97 0 0 -195.95c0,-107.71 88.19,-151.38 195.97,-151.38z"/>
   <path class="fil0" d="M1100 688.37l-347.36 0 0 -195.95 195.96 0c107.73,0 151.4,88.18 151.4,195.95z"/>
   <path class="fil1" d="M411.24 446.32l-119.12 -158.3 161.39 116.03c26.21,-105.17 -40.92,-175.12 -238.24,-195.94 2.28,187.7 75.44,253.66 195.97,238.21z"/>
   <path class="fil1" d="M800.33 446.32l119.11 -158.3 -161.38 116.03c-26.22,-105.17 40.91,-175.12 238.24,-195.94 -2.29,187.7 -75.43,253.66 -195.97,238.21z"/>
   <path class="fil1" d="M411.24 735.87l-119.12 158.29 161.39 -116.03c26.21,105.18 -40.92,175.13 -238.24,195.95 2.28,-187.71 75.44,-253.66 195.97,-238.21z"/>
   <path class="fil1" d="M800.33 735.87l119.11 158.29 -161.38 -116.03c-26.22,105.18 40.91,175.13 238.24,195.95 -2.29,-187.71 -75.43,-253.66 -195.97,-238.21z"/>
  </g>
 </g>
</svg>
